<?xml version="1.0" encoding="utf-8"?>
<!-- Generator: Adobe Illustrator 25.4.1, SVG Export Plug-In . SVG Version: 6.00 Build 0)  -->
<svg version="1.1" id="Слой_2_00000097461307736400358150000000851932709705986465_"
	 xmlns="http://www.w3.org/2000/svg" xmlns:xlink="http://www.w3.org/1999/xlink" x="0px" y="0px" viewBox="0 0 480.5 480.5"
	 style="enable-background:new 0 0 480.5 480.5;" xml:space="preserve">
<style type="text/css">
	.st0{fill:#0034CB;}
</style>
<path class="st0" d="M319,424.6c-89.1,0-161.5-72.5-161.5-161.5S230,101.6,319,101.6s161.5,72.4,161.5,161.5S408,424.6,319,424.6z
	 M319,120.5c-78.7,0-142.7,64-142.7,142.7s64,142.7,142.7,142.7s142.7-64,142.7-142.7S397.7,120.5,319,120.5L319,120.5z"/>
<path class="st0" d="M289.1,377.4c-0.9,0-1.7-0.1-2.6-0.4c-50.8-14.6-85.8-61.1-86-113.9c0-3.2,0.1-6.4,0.4-9.5
	c0.3-5.2,4.8-9.1,10-8.8c5.2,0.3,9.1,4.8,8.8,10c0,0.1,0,0.2,0,0.3c-0.2,2.6-0.3,5.4-0.3,8c0.1,44.4,29.5,83.5,72.2,95.8
	c5,1.4,7.9,6.6,6.5,11.6C296.9,374.6,293.2,377.4,289.1,377.4L289.1,377.4z"/>
<path class="st0" d="M335.7,380.3c-5.2,0-9.4-4.2-9.4-9.4c0-4.6,3.4-8.6,8-9.3c24.9-3.8,47.4-17,62.9-36.8c3.2-4.1,9.2-4.8,13.2-1.6
	c4.1,3.2,4.8,9.2,1.6,13.2l0,0c-18.5,23.5-45.3,39.1-74.8,43.7C336.7,380.3,336.2,380.3,335.7,380.3z"/>
<path class="st0" d="M320.3,292.7c-18.6,0-33.6-15.1-33.7-33.6c0-18.6,15.1-33.7,33.6-33.7c18.6,0,33.7,15.1,33.7,33.6c0,0,0,0,0,0
	C354,277.7,338.9,292.7,320.3,292.7z M320.3,244.3c-8.2,0-14.8,6.6-14.8,14.8c0,8.2,6.6,14.8,14.8,14.8s14.8-6.6,14.8-14.8
	c0,0,0,0,0,0C335.1,250.9,328.5,244.3,320.3,244.3L320.3,244.3z"/>
<path class="st0" d="M336.5,252.4c-5.2,0-9.4-4.2-9.4-9.4c0-2.5,1-4.9,2.8-6.7l61.9-61.9c3.7-3.6,9.7-3.5,13.3,0.2
	c3.5,3.7,3.5,9.4,0,13.1l-61.9,61.9C341.4,251.4,339,252.4,336.5,252.4z"/>
<rect x="310.9" y="65.3" class="st0" width="18.8" height="45.8"/>
<path class="st0" d="M374.2,74.7H266.5c-5.2,0-9.4-4.2-9.4-9.4s4.2-9.4,9.4-9.4c0,0,0,0,0,0h107.7c5.2,0,9.4,4.2,9.4,9.4
	C383.6,70.5,379.4,74.7,374.2,74.7z"/>
<path class="st0" d="M137.3,201.2h-105c-5.2-0.2-9.3-4.5-9.1-9.7c0.2-5,4.2-9,9.1-9.1h105c5.2,0.2,9.3,4.5,9.1,9.7
	C146.3,197.1,142.3,201.1,137.3,201.2L137.3,201.2z"/>
<path class="st0" d="M114.4,276.6H9.4c-5.2,0-9.4-4.2-9.4-9.4s4.2-9.4,9.4-9.4c0,0,0,0,0,0h105c5.2,0,9.4,4.2,9.4,9.4
	C123.8,272.4,119.6,276.6,114.4,276.6C114.4,276.6,114.4,276.6,114.4,276.6z"/>
<path class="st0" d="M138.6,346.6h-105c-5.2,0-9.4-4.2-9.4-9.4c0-5.2,4.2-9.4,9.4-9.4h105c5.2,0,9.4,4.2,9.4,9.4
	S143.8,346.6,138.6,346.6C138.6,346.6,138.6,346.6,138.6,346.6z"/>
</svg>
