﻿<?xml version="1.0" encoding="utf-8"?>
<svg version="1.1" xmlns:xlink="http://www.w3.org/1999/xlink" width="59px" height="45px" xmlns="http://www.w3.org/2000/svg">
  <g transform="matrix(1 0 0 1 -41 -1279 )">
    <path d="M 59 39.8076923076923  C 59 37.5513461538462  57.554845703125 35.6275384615385  55.54296875 34.9130769230769  L 55.54296875 29.4230769230769  C 55.54296875 23.7244615384615  53.707861328125 18.3079615384615  50.236080078125 13.7592692307692  C 47.1543671875 9.72161538461539  42.8934609375 6.62503846153846  38.136125 4.93892307692308  C 38.003720703125 2.19311538461539  35.731529296875 0  32.95703125 0  L 26.04296875 0  C 23.268470703125 0  20.996279296875 2.19311538461539  20.863875 4.93892307692308  C 16.1065390625 6.62503846153846  11.8456328125 9.72161538461539  8.763919921875 13.7592692307692  C 5.292138671875 18.3079615384615  3.45703125 23.7244615384615  3.45703125 29.4230769230769  L 3.45703125 34.9130769230769  C 1.445154296875 35.6275384615385  0 37.5513461538462  0 39.8076923076923  C 0 42.6707307692308  2.326236328125 45  5.185546875 45  L 53.814453125 45  C 56.673763671875 45  59 42.6707307692308  59 39.8076923076923  Z M 6.9140625 34  L 6.9140625 29.4230769230769  C 6.9140625 23.1818076923077  9.57666796875 17.3390769230769  13.943359375 13.1705769230769  L 13.943359375 19.0384615384615  C 13.943359375 19.9943076923077  14.7172734375 20.7692307692308  15.671875 20.7692307692308  C 16.6264765625 20.7692307692308  17.400390625 19.9943076923077  17.400390625 19.0384615384615  L 17.400390625 10.4558076923077  C 18.4895859375 9.75957692307693  19.644810546875 9.15219230769231  21 8.64669230769231  L 21 22.5  C 20.857421875 23.4558461538462  21.6313359375 24.2307692307692  22.5859375 24.2307692307692  C 23.5405390625 24.2307692307692  24.314453125 23.4558461538462  25 22.5  L 25 6.22292307692308  C 24.314568359375 6.21819230769231  24.314453125 6.21346153846154  24.314453125 6.20873076923077  L 24.314453125 5.19230769230769  C 24.314453125 4.23796153846154  25.089865234375 3.46153846153846  26.04296875 3.46153846153846  L 32.95703125 3.46153846153846  C 33.910134765625 3.46153846153846  34.685546875 4.23796153846154  34.685546875 5.19230769230769  L 34.685546875 6.20826923076923  C 34.685546875 6.21323076923077  34.685431640625 6.21807692307692  34 6.22303846153846  L 34 22.5  C 34.685546875 23.4558461538462  35.4594609375 24.2307692307692  36.4140625 24.2307692307692  C 37.3686640625 24.2307692307692  38.142578125 23.4558461538462  38 22.5  L 38 8.64669230769231  C 39.355189453125 9.15230769230769  40.5104140625 9.75969230769231  41.599609375 10.4558076923077  L 41.599609375 19.0384615384615  C 41.599609375 19.9943076923077  42.3735234375 20.7692307692308  43.328125 20.7692307692308  C 44.2827265625 20.7692307692308  45.056640625 19.9943076923077  45.056640625 19.0384615384615  L 45.056640625 13.1705769230769  C 49.42333203125 17.3390769230769  52.0859375 23.1818076923077  52.0859375 29.4230769230769  L 52.0859375 34  L 6.9140625 34  Z M 55.54296875 39.8076923076923  C 55.54296875 40.7620384615385  54.767556640625 41.5384615384615  53.814453125 41  L 5.185546875 41  C 4.232443359375 41.5384615384615  3.45703125 40.7620384615385  3.45703125 39.8076923076923  C 3.45703125 38.8533461538462  4.232443359375 38.0769230769231  5.185546875 38  L 53.814453125 38  C 54.767556640625 38.0769230769231  55.54296875 38.8533461538462  55.54296875 39.8076923076923  Z " fill-rule="nonzero" fill="#144da3" stroke="none" transform="matrix(1 0 0 1 41 1279 )" />
  </g>
</svg>