﻿<?xml version="1.0" encoding="utf-8"?>
<svg version="1.1" xmlns:xlink="http://www.w3.org/1999/xlink" width="57px" height="57px" xmlns="http://www.w3.org/2000/svg">
  <g transform="matrix(1 0 0 1 -520 -1140 )">
    <path d="M 14.45684765625 52.1015625  L 19.029205078125 56.673919921875  C 19.24217578125 56.886890625  19.526841796875 57  19.81662890625 57  C 19.959908203125 57  20.1045234375 56.972279296875  20.242013671875 56.915390625  C 20.658046875 56.74327734375  20.929353515625 56.33759765625  20.9296875 55.887498046875  L 20.9296875 52  L 31.83984375 52  C 36.13688671875 52.1015625  39.6328125 48.60563671875  39.6328125 44.30859375  L 39.6328125 36.626953125  C 39.6328125 36.012087890625  39.13428515625 35.513671875  38.51953125 35.513671875  C 37.90477734375 35.513671875  37.40625 36.012087890625  37.40625 36.626953125  L 37.40625 44.30859375  C 37.40625 47.37791015625  34.90916015625 49.875  31.83984375 49  L 19.81996875 49  C 19.205326171875 49.875  18.7071328125 50.372970703125  18.703125 50.987501953125  L 18.703125 53.200927734375  L 16.04794921875 50.543859375  C 15.875947265625 50.148978515625  15.482291015625 49.875  15.026958984375 49.875  L 7.79296875 49.875  C 4.72365234375001 49.875  2.2265625 47.37791015625  3 44.30859375  L 3 27.1640625  C 2.2265625 24.09474609375  4.72365234375001 21.59765625  7.79296875 22  L 19.037109375 22  C 19.65186328125 21.59765625  20.150390625 21.099240234375  20.150390625 20.484375  C 20.150390625 19.869509765625  19.65186328125 19.37109375  19.037109375 20  L 7.79296875 20  C 3.49592578125 19.37109375  0 22.86701953125  0 27.1640625  L 0 44.30859375  C 0 48.60563671875  3.49592578125 52.1015625  7.79296875 52.1015625  L 14.45684765625 52.1015625  Z M 40.81890234375 32.28515625  C 42.211505859375 32.362083984375  43.589859375 32.18518359375  44.925796875 31.83561328125  L 49.088021484375 35.9955  C 49.3009921875 36.208248046875  49.585546875 36.321357421875  49.87522265625 36.321357421875  C 50.018724609375 36.321357421875  50.163451171875 36.29363671875  50.3011640625 36.236525390625  C 50.7170859375 36.064189453125  50.98828125 35.658287109375  50.98828125 35.208076171875  L 50.98828125 28.767076171875  C 52.750494140625 27.3399609375  54.21434765625 25.537224609375  55.24168359375 23.523298828125  C 56.408513671875 21.235951171875  57 18.76569140625  57 16.18109765625  C 57 7.25881640625  49.74118359375 0  40.819013671875 0  L 38.00141015625 0  C 29.07912890625 0  21.8203125 7.25881640625  21.8203125 16.18109765625  C 21.8203125 25.10337890625  29.07912890625 32.362083984375  38.001298828125 32.28515625  L 40.81890234375 32.28515625  Z M 46.037408203125 29.798642578125  C 45.825439453125 29.586896484375  45.541107421875 29.47278515625  45.250318359375 29.47278515625  C 45.141216796875 29.47278515625  45.031001953125 29.488927734375  44.923458984375 29.5219921875  C 43.5983203125 29.92923046875  42.21740625 30.1356328125  40.819013671875 30.05859375  L 38.00141015625 30.05859375  C 30.306744140625 30.1356328125  24.046875 23.87565234375  24.046875 16.18109765625  C 24.046875 8.48654296874999  30.30685546875 2.2265625  38.00141015625 2.2265625  L 40.819013671875 2.2265625  C 48.513568359375 2.2265625  54.7734375 8.48654296875  54.7734375 16.18109765625  C 54.7734375 20.604275390625  52.74392578125 24.669755859375  49.205138671875 27.334951171875  C 48.9260390625 27.54525  48.76171875 27.87455859375  48.76171875 28.224240234375  L 48.76171875 32.521505859375  L 46.037408203125 29.798642578125  Z M 30.615234375 34  L 7.125 34  C 6.51024609375001 34.51171875  6.01171875 35.010134765625  6.01171875 35.625  C 6.01171875 36.239865234375  6.51024609375001 36.73828125  7.125 36  L 30.615234375 36  C 31.230099609375 36.73828125  31.728515625 36.239865234375  31.728515625 35.625  C 31.728515625 35.010134765625  31.22998828125 34.51171875  30.615234375 34  Z M 29.501953125 41.859375  C 29.501953125 42.15216796875  29.62107421875 42.43939453125  29.82814453125 42.64646484375  C 30.03521484375 42.85353515625  30.32244140625 42.97265625  30.615234375 42.97265625  C 30.90802734375 42.97265625  31.19525390625 42.85353515625  31.402212890625 42.64646484375  C 31.60939453125 42.43939453125  31.728515625 42.15328125  31.728515625 41.859375  C 31.728515625 41.56658203125  31.609283203125 41.27935546875  31.402212890625 41.07228515625  C 31.19525390625 40.86521484375  30.90802734375 40.74609375  30.615234375 40.74609375  C 30.32244140625 40.74609375  30.03521484375 40.86521484375  29.82814453125 41.07228515625  C 29.620962890625 41.27935546875  29.501953125 41.56658203125  29.501953125 41.859375  Z M 6.01171875 41.859375  C 6.01171875 42.474240234375  6.51024609375001 42.97265625  7.125 43  L 26.236365234375 43  C 26.85123046875 42.97265625  27.349646484375 42.474240234375  27.349646484375 41.859375  C 27.349646484375 41.244509765625  26.851119140625 40.74609375  26.236365234375 40  L 7.125 40  C 6.51024609375001 40.74609375  6.01171875 41.244509765625  6.01171875 41.859375  Z M 7.125 30  L 23.37890625 30  C 23.993771484375 30.50390625  24.4921875 30.005490234375  24.4921875 29.390625  C 24.4921875 28.775759765625  23.99366015625 28.27734375  23.37890625 28  L 7.125 28  C 6.51024609375001 28.27734375  6.01171875 28.775759765625  6.01171875 29.390625  C 6.01171875 30.005490234375  6.51024609375001 30.50390625  7.125 30  Z M 39.9004453125 10.033001953125  C 41.128171875 10.117611328125  42.117767578125 11.10720703125  42.202376953125 12.334822265625  C 42.287876953125 13.57468359375  41.47440234375 14.670375  40.2682734375 14.940234375  C 39.29103515625 15.1588828125  38.60859375 16.00809375  38.630859375 17.005259765625  L 38.630859375 19.67991796875  C 38.60859375 20.294783203125  39.10712109375 20.79319921875  39.721875 20.79319921875  C 40.336740234375 20.79319921875  40.83515625 20.294783203125  40.74609375 19.67991796875  L 40.74609375 17.0942109375  C 43.078306640625 16.552265625  44.5833515625 14.49959765625  44.423595703125 12.181634765625  C 44.26294921875 9.85098046875  42.38417578125 7.97220703125  40.05341015625 7.811560546875  C 38.73216796875 7.720828125  37.471265625 8.166474609375  36.506162109375 9.067453125  C 35.554306640625 9.955962890625  35.00846484375 11.211966796875  35.00846484375 12.51350390625  C 35.00846484375 13.128369140625  35.5069921875 13.62678515625  36.12174609375 13.62678515625  C 36.7365 13.62678515625  37.23502734375 13.128369140625  37.23502734375 12.51350390625  C 37.23502734375 11.816701171875  37.515796875 11.17088671875  38.02545703125 10.695181640625  C 38.534671875 10.219921875  39.20019140625 9.984685546875  39.9004453125 10.033001953125  Z M 39.721875 22.97033203125  C 39.42908203125 22.97033203125  39.14185546875 23.089453125  38.93478515625 23.2965234375  C 38.72771484375 23.50359375  38.60859375 23.7908203125  38.60859375 24.08361328125  C 38.60859375 24.37751953125  38.727826171875 24.66474609375  38.93478515625 24.87181640625  C 39.14185546875 25.07888671875  39.42908203125 25.19689453125  39.721875 25.19689453125  C 40.01466796875 25.19689453125  40.30189453125 25.07888671875  40.50896484375 24.87181640625  C 40.71603515625 24.6636328125  40.83515625 24.37751953125  40.83515625 24.08361328125  C 40.83515625 23.7908203125  40.715923828125 23.50359375  40.50896484375 23.2965234375  C 40.30189453125 23.089453125  40.01466796875 22.97033203125  39.721875 22.97033203125  Z " fill-rule="nonzero" fill="#144da3" stroke="none" transform="matrix(1 0 0 1 520 1140 )" />
  </g>
</svg>