<?xml version="1.0" encoding="utf-8"?>
<!-- Generator: Adobe Illustrator 25.2.1, SVG Export Plug-In . SVG Version: 6.00 Build 0)  -->
<svg version="1.1" id="Layer_1" xmlns="http://www.w3.org/2000/svg" xmlns:xlink="http://www.w3.org/1999/xlink" x="0px" y="0px"
	 viewBox="0 0 567.9 151.9" style="enable-background:new 0 0 567.9 151.9;" xml:space="preserve">
<style type="text/css">
	.st0{fill:#1A1A18;}
	.st1{fill:#1259A6;}
</style>
<path class="st0" d="M526,85.6V48c6.6-0.8,13.2-1.7,19.9-2.9c6.5-1.1,11.7-3,15.6-5.3v8.9H541v24.8H567v12.1H526z M501.6,50.2v35.4
	h-15V50.8C491.6,50.7,496.6,50.5,501.6,50.2z M413.6,85.6l6.5-36c4.8,0.3,9.7,0.5,14.5,0.7l-1.4,8.5h14.4l-1.4-8.1
	c4.9,0.2,9.8,0.3,14.7,0.3l6.2,34.6h-15l-2.6-15.3h-18.3l-2.6,15.3H413.6z M405.4,48.7v36.9h-15V47.8
	C395.4,48.1,400.4,48.4,405.4,48.7z M370.7,46.5l2.7,14.8l2.5-14.5l7.5,0.5l3.1,0.2L380,85.6h-14.2l-7.5-39.9
	C362.5,45.9,366.6,46.2,370.7,46.5z M341.5,85.6V44.7c4.3,0.2,8.7,0.5,13,0.7v40.1H341.5z M313.6,85.6V43.7c5,0.1,10,0.3,15,0.5
	v41.4H313.6z M265.2,85.6V44.1c5-0.2,10-0.4,15-0.5v29.9h24.7v12.1H265.2z M209.1,65.3V50.2c5-0.9,10-1.6,15-2.3v18.4
	c0,5.5,2.6,8.3,7.8,8.3c5.2,0,7.7-2.8,7.7-8.3V54.1h15v11.3c0,6.8-2,12.1-6.1,15.7c-4,3.7-9.7,5.5-17.1,5.5
	c-7.3,0-12.9-1.8-16.7-5.5C211,77.4,209.1,72.1,209.1,65.3z M113.2,85.6V1H134l11.1,60.3L155.4,1H177v84.6h-15V24.9l-10.4,60.7
	h-14.2l-11.3-60.3v60.3H113.2z M70.5,73.5H79c2.5,0,4.4-0.6,5.7-1.9c1.3-1.3,2-3.4,2-6.3v-44c0-2.9-0.7-5-2-6.3
	c-1.3-1.3-3.2-1.9-5.7-1.9h-8.5V73.5z M55.5,85.6V1h23.7c7.4,0,13,1.8,16.8,5.4c3.8,3.6,5.6,8.8,5.6,15.6v42.8
	c0,6.8-1.9,12-5.6,15.5c-3.8,3.6-9.3,5.3-16.8,5.3H55.5z M0,65.4v-5.2h15.4v6c0,5.5,2.4,8.3,7.2,8.3c4.8,0,7.2-2.8,7.2-8.3
	c0-2.4-0.5-4.6-1.6-6.7c-1.1-2.1-2.4-4-4.1-5.7c-1.7-1.7-3.5-3.3-5.6-5c-2-1.7-4.1-3.4-6.3-5.3c-2.1-1.8-4.1-3.8-5.8-5.8
	c-1.7-2.1-3.2-4.5-4.3-7.3c-1.1-2.8-1.7-5.9-1.7-9.2c0-6.8,2-12,6.1-15.7c4.1-3.7,9.6-5.5,16.5-5.5c6.9,0,12.2,1.8,16,5.5
	c3.8,3.7,5.6,8.9,5.6,15.7V24H30.4v-3.5c0-5.5-2.5-8.3-7.5-8.3c-2.5,0-4.3,0.7-5.6,2c-1.3,1.3-1.9,3.4-1.9,6.4
	c0,2.4,0.5,4.6,1.6,6.7c1.1,2.1,2.5,4,4.2,5.7c1.7,1.7,3.6,3.3,5.7,5c2.1,1.7,4.2,3.4,6.3,5.3c2.1,1.8,4,3.8,5.7,5.8
	c1.7,2.1,3.1,4.5,4.2,7.3c1.1,2.8,1.6,5.9,1.6,9.2c0,6.8-1.9,12-5.7,15.7c-3.8,3.7-9.2,5.5-16.2,5.5c-6.9,0-12.5-1.8-16.6-5.5
	C2.1,77.4,0,72.2,0,65.4z"/>
<path class="st1" d="M526,45.1c6.5-0.8,12.9-1.7,19.4-2.8c6.7-1.1,11.7-3.1,15.5-5.7H541V13h25.9V1H526V45.1z M486.6,47.9
	c5-0.2,10-0.4,15-0.7V13h15.7V1h-46.4V13h15.7V47.9z M420.6,46.7c4.8,0.3,9.7,0.5,14.5,0.7l5.2-30.9l5.3,31.3
	c4.9,0.2,9.8,0.3,14.7,0.3L451.9,1h-23.1L420.6,46.7z M376.4,43.9l7.2,0.5l3.4,0.2l3.4-19.7v20c5,0.3,10,0.7,15,1V1h-21.6
	L376.4,43.9z M341.5,41.8c4.3,0.2,8.7,0.5,13,0.7V25.3l3.3,17.4c4.2,0.3,8.3,0.5,12.4,0.8L362.3,1h-20.8V41.8z M313.5,40.7
	c5,0.1,10,0.3,15,0.5V1h-15V40.7z M265.1,41.2c5-0.2,10-0.4,15-0.5V1h-15V41.2z M209.3,47.2c5-0.8,9.9-1.6,14.8-2.3V20.4
	c0-5.6,2.6-8.3,7.8-8.3c5.2,0,7.7,2.8,7.7,8.3v9.1h15v-8.3c0-6.8-2-12-6.1-15.7c-4-3.7-9.7-5.5-17.1-5.5c-7.3,0-12.9,1.8-16.7,5.5
	c-3.8,3.7-5.7,8.9-5.7,15.7v24.9L209.3,47.2z"/>
<path class="st1" d="M101.6,52.4c-4.6-2.2-7.8-6.8-7.8-12.3c0-5.4,3.2-10.1,7.8-12.3V52.4z"/>
<path class="st1" d="M113.1,27.9c4.6,2.2,7.7,6.8,7.7,12.2c0,5.4-3.2,10.1-7.7,12.2V27.9z"/>
<path class="st1" d="M162,81c7-10.2,11.1-22.3,11.1-35.3c0-16.8-6.8-32.1-17.9-43.6l0.2-1.1H177v84.6h-15V81z"/>
<path class="st0" d="M560,128l-7.1-2v15.6h7.1V128z M545.9,126h21v-6.2h-21V126z M543.2,132.7l-1.1-4.3h-11.3l1.1,4.3H543.2z
	 M523.6,124.8v11.7c0,2.9,2.3,5,5.2,5h15.1v-5.2h-13.1V125h13.1v-5.2h-15.1C525.9,119.8,523.6,121.9,523.6,124.8z M506.1,119.8H499
	v21.8h7.1v-8.8h1.3l5.2,8.8h8.3l-7.5-11.3l6.1-10.4h-7.8l-4.3,8.2h-1.3V119.8z M495.1,132.3v-4.5c0-5.8-3-8-8.2-8h-13.5v31.1h7.1
	V126h3.9c3,0,3.5,0.1,3.5,4.7c0,3.7-0.2,4.7-3.5,4.7h-3.9l2.5,6.2h3.9C492.8,141.6,495.1,138.9,495.1,132.3z M461.5,126v15.6h7.1
	v-21.8h-13.5c-5.2,0-8.2,2.2-8.2,8v4.5c0,6.6,2.2,9.3,8.2,9.3h3.9l2.5-6.2h-3.9c-3.3,0-3.5-1-3.5-4.7c0-4.6,0.5-4.7,3.5-4.7H461.5z
	 M443,141.6v-21.8h-6.9c-2.7,0-4.6,2-5.2,4.7l-2.5,10.8h-0.1l-2.4-10.8c-0.6-2.7-2.5-4.7-5.2-4.7h-7.1v21.8h6.9v-17h0.1l4.5,17h6.5
	l4.5-17h0.1v17H443z M409.3,132.3v-4.5c0-5.8-3-8-8.2-8h-13.5v31.1h7.1V126h3.9c3,0,3.5,0.1,3.5,4.7c0,3.7-0.2,4.7-3.5,4.7h-3.9
	l2.5,6.2h3.9C407.1,141.6,409.3,138.9,409.3,132.3z M383.3,132.7l-1.1-4.3h-11.3l1.1,4.3H383.3z M363.8,124.8v11.7
	c0,2.9,2.3,5,5.2,5h15.1v-5.2h-13.1V125h13.1v-5.2H369C366.1,119.8,363.8,121.9,363.8,124.8z M359,141.6v-16.8c0-2.9-2.3-5-5.2-5
	h-15.7v21.8h7.1V126h6.7v15.6H359z M333.4,141.6v-21.8h-3.1c-3.1,0-5,1.9-6.5,4.8l-4.3,7.8h-0.1l0.3-12.6h-7.1v21.8h3.1
	c3.2,0,5.1-1.9,6.6-4.8l4.3-7.8h0.1l-0.3,12.6H333.4z M292.7,124.8v16.8h7.1V126h9.7v-6.2h-11.6C295,119.8,292.7,121.9,292.7,124.8z
	 M273,141.6v-21.8h-3.1c-3.1,0-5,1.9-6.5,4.8l-4.3,7.8h-0.1l0.3-12.6h-7.1v21.8h3.1c3.2,0,5.1-1.9,6.6-4.8l4.3-7.8h0.1l-0.3,12.6
	H273z M269.7,112.1H265c0,1.6-1.2,1.6-2.3,1.6c-1.2,0-2.3,0-2.3-1.6h-4.7c0,4.7,3.3,4.6,7,4.6C266.4,116.7,269.7,116.8,269.7,112.1z
	 M237.7,134.4c0-6.4-3.6-7.1-9.3-7.1h-3.8l1.2,4.6h2c2,0,2.9,0.5,2.9,2.5s-1,2.5-2.9,2.5h-3.1v-17.2h-7.1v21.8h10.9
	C234.1,141.6,237.7,140.8,237.7,134.4z M240.2,119.8v21.8h7.1v-21.8H240.2z M198.9,141.6v-21.8h-7.1v21.8H198.9z M198.9,127.3
	l1.6,6.2h5.1v8.1h7.1v-21.8h-7.1v7.5H198.9z M181.8,128l-7.1-2v15.6h7.1V128z M167.7,126h21v-6.2h-21V126z M165.3,132.3v-4.5
	c0-5.8-3-8-8.2-8h-13.5v31.1h7.1V126h3.9c3,0,3.5,0.1,3.5,4.7c0,3.7-0.2,4.7-3.5,4.7h-3.9l2.5,6.2h3.9
	C163.1,141.6,165.3,138.9,165.3,132.3z M129.1,125.9c3.3,0,3.6,0.7,3.6,4.8c0,4.3-0.3,4.7-3.6,4.7c-3.5,0-3.9-0.4-3.9-4.7
	C125.3,126.5,125.7,125.9,129.1,125.9z M129,119.6c-9.1,0-10.9,2.2-10.9,11.2c0,8.7,2,11.1,10.9,11.1c9,0,10.9-2.2,10.9-11.1
	C139.9,121.5,138.1,119.6,129,119.6z M95.4,110.5v9.3H90c-4.5,0-7.2,2.2-7.2,8v4.5c0,6.6,2,9.3,7.2,9.3h5.5l-1.6-6.2h-1
	c-2.1,0-2.9-0.7-2.9-4.6c0-3.7,0.3-4.7,2.9-4.7h2.6v25h7.1v-25h2.6c2.6,0,2.9,1,2.9,4.7c0,3.9-0.8,4.6-2.9,4.6h-2.6l1.6,6.2h3.9
	c5.2,0,7.2-2.6,7.2-9.3v-4.5c0-5.7-2.6-8-7.2-8h-5.5v-9.3H95.4z M78.9,141.6v-21.8H72c-2.7,0-4.6,2-5.2,4.7l-2.5,10.8h-0.1
	l-2.4-10.8c-0.6-2.7-2.5-4.7-5.2-4.7h-7.1v21.8h6.9v-17h0.1l4.5,17h6.5l4.5-17H72v17H78.9z M34.7,125.9c3.3,0,3.6,0.7,3.6,4.8
	c0,4.3-0.3,4.7-3.6,4.7c-3.5,0-3.9-0.4-3.9-4.7C30.8,126.5,31.2,125.9,34.7,125.9z M34.6,119.6c-9.1,0-10.9,2.2-10.9,11.2
	c0,8.7,2,11.1,10.9,11.1c9,0,10.9-2.2,10.9-11.1C45.5,121.5,43.7,119.6,34.6,119.6z M7.1,119.8H0v21.8h7.1v-8.8h1.3l5.2,8.8h8.3
	l-7.5-11.3l6.1-10.4h-7.8L8.4,128H7.1V119.8z"/>
</svg>
