+ /admin
- /admin/impex
+ /admin/***
+ /amointg/***
+ /assets/***
+ /catalog/***
+ /dadayama/***
+ /img/***
+ /impex/***
+ /link/***
+ /localconfig/***
+ /min
- /min/cache
+ /min/***

# Do not delete csv files from server
+ /multiyamfeed
- /multiyamfeed/temp
- /multiyamfeed/*.csv
+ /multiyamfeed/***

+ /optipic.io/***
+ /robotswork/***
+ /socnetauth2/***

# Sync system dir (without storage, but create dirs if they don't exist)
+ /system
+ /system/storage
+ /system/storage/cache/
+ /system/storage/cache/index.html
+ /system/storage/download
+ /system/storage/download/index.html
+ /system/storage/modification
+ /system/storage/modification/index.html
+ /system/storage/session
+ /system/storage/session/index.html
+ /system/storage/upload
+ /system/storage/upload/index.html
+ /system/storage/vendor/***
- /system/storage/***
+ /system/***

+ /update_mod/***
+ /webp-images/***
+ /yamfeed/***

# Sync some files from public dir (to not remove staff that created on server)
+ /android-chrome-192x192.png
+ /android-chrome-512x512.png
+ /apple-touch-icon.png
+ /browserconfig.xml
+ /config.php
+ /favicon.ico
+ /favicon-16x16.png
+ /favicon-32x32.png
+ /index.php
+ /mstile-70x70.png
+ /mstile-144x144.png
+ /mstile-150x150.png
+ /mstile-310x150.png
+ /mstile-310x310.png
+ /roistat_proxy.php
+ /roistat_proxy_dbs.php
+ /roistat_proxy_dbs_22883304.php
+ /roistat_proxy_adv_21398469.php
+ /roistat_proxy_fbs_21930859.php
+ /site.webmanifest

# Dont sync not listed staff
- *
