<svg width="75" height="90" viewBox="0 0 75 90" fill="none" xmlns="http://www.w3.org/2000/svg">
<path d="M11.1655 0H0V3.72007H11.1655V0Z" transform="translate(31.9258 6.29785)" fill="#115157"/>
<path d="M72.5754 31.621C70.0048 31.621 66.1274 32.5079 63.271 35.1819V5.58019C63.271 2.49836 60.7715 0 57.6882 0H16.7482C13.6649 0 11.1655 2.49836 11.1655 5.58019V27.9009H5.58273C2.49949 27.9009 -3.19446e-08 30.3993 -3.19446e-08 33.4811V37.2012C-3.19446e-08 38.6306 0.538384 39.9341 1.42272 40.9213C0.538384 41.9086 -3.19446e-08 43.2119 -3.19446e-08 44.6413V48.3614C-3.19446e-08 49.7908 0.538384 51.0943 1.42272 52.0815C0.538384 53.0688 -3.19446e-08 54.3721 -3.19446e-08 55.8015V59.5216C-3.19446e-08 60.951 0.538384 62.2545 1.42272 63.2417C0.538384 64.229 -3.19446e-08 65.5323 -3.19446e-08 66.9617V70.6818C-3.19446e-08 73.7636 2.49949 76.262 5.58273 76.262H11.1655V83.7028C11.1655 86.7847 13.6649 89.283 16.7482 89.283H57.6882C60.7715 89.283 63.271 86.7847 63.271 83.7028V43.3561C63.5689 39.3736 66.6354 36.0508 70.7146 35.5364V87.4229H74.4364V33.4811C74.4362 32.4539 73.6032 31.621 72.5754 31.621ZM16.7482 3.72007H57.6882C58.7158 3.72007 59.549 4.55291 59.549 5.58019V11.1604H14.8872V5.58019C14.8872 4.55291 15.7204 3.72007 16.7482 3.72007ZM3.72176 59.522V55.8019C3.72176 54.7746 4.55498 53.9418 5.58273 53.9418H11.1655V61.3821H5.58273C4.55498 61.3821 3.72176 60.5492 3.72176 59.522ZM3.72176 48.3616V44.6415C3.72176 43.6142 4.55498 42.7814 5.58273 42.7814H11.1655V50.2217H5.58273C4.55498 50.2217 3.72176 49.3889 3.72176 48.3616ZM3.72176 33.4811C3.72176 32.4539 4.55498 31.621 5.58273 31.621H11.1655V39.0613H5.58273C4.55498 39.0613 3.72176 38.2285 3.72176 37.2012V33.4811ZM5.58273 72.5424C4.55498 72.5424 3.72176 71.7096 3.72176 70.6823V66.9623C3.72176 65.935 4.55498 65.1021 5.58273 65.1021H11.1655V72.5424H5.58273ZM57.688 85.563H16.7482C15.7204 85.563 14.8872 84.7301 14.8872 83.7028V78.1226H59.549V83.7028C59.549 84.7301 58.7158 85.563 57.688 85.563ZM59.549 74.4026H14.8872V63.2422V52.0818V40.9214V29.7611V14.8804H59.549V74.4026Z" transform="translate(0.289062 0.717773)" fill="#115157"/>
<path d="M18.6091 -1.29849e-06C8.33169 -1.29849e-06 -1.29908e-06 8.32773 -1.29908e-06 18.6007C-1.29908e-06 28.8736 8.33169 37.2014 18.6091 37.2014C28.8821 37.19 37.2069 28.8689 37.2183 18.6007C37.2183 8.32791 28.8866 -1.29849e-06 18.6091 -1.29849e-06ZM18.6091 33.4811C10.3872 33.4811 3.72193 26.8189 3.72193 18.6007C3.72193 10.3825 10.3872 3.72024 18.6091 3.72024C26.8273 3.72949 33.4871 10.3863 33.4964 18.6007C33.4964 26.8189 26.8311 33.4811 18.6091 33.4811Z" transform="translate(18.8945 26.7583)" fill="#115157"/>
<path d="M5.58273 5.58019C6.61047 5.58019 7.44369 6.41303 7.44369 7.44031H11.1655C11.1655 5.01084 9.61171 2.94512 7.44369 2.17889V0H3.72193V2.17889C1.55374 2.94494 0 5.01084 0 7.44031C0 10.5221 2.49949 13.0205 5.58273 13.0205C6.61047 13.0205 7.44369 13.8533 7.44369 14.8806C7.44369 15.9079 6.61047 16.7407 5.58273 16.7407C4.55498 16.7407 3.72176 15.9079 3.72176 14.8806H0C0 17.3101 1.55374 19.3758 3.72176 20.142V22.3208H7.44351V20.1419C9.61153 19.3756 11.1653 17.3099 11.1653 14.8804C11.1653 11.7986 8.66578 9.30025 5.58255 9.30025C4.5548 9.30025 3.72158 8.46741 3.72158 7.44014C3.72176 6.41303 4.55498 5.58019 5.58273 5.58019Z" transform="translate(31.9258 34.1987)" fill="#115157"/>
</svg>
